{
	"fileTypes": [],
	"injectionSelector": "text.html",
	"patterns": [
		{
			"include": "#embedded-type-less"
        },
        {
			"include": "#embedded-lang-less"
		}
	],
	"repository": {
		"embedded-type-less": {
			"begin": "(?<=<style type=\"text\/less\">)",
			"end": "(?=</style>)",
			"contentName": "meta.embedded.less",
			"patterns": [
				{
					"include": "#less-code-block"
				}
			]
        },
        "embedded-lang-less": {
			"begin": "(?<=<style lang=\"less\">)",
			"end": "(?=</style>)",
			"contentName": "meta.embedded.less",
			"patterns": [
				{
					"include": "#less-code-block"
				}
			]
		},
		"less-code-block": {
			"patterns": [
				{
					"include": "source.css.less"
				},
				{
					"include": "#noop"
				}
			]
		},
		"noop": {
			"match": "."
		}
	},
	"scopeName": "meta.embedded.css.less.tag"
}